<svg xmlns="http://www.w3.org/2000/svg" width="84.911" height="30.723" viewBox="0 0 84.911 30.723">
  <g id="layer1" transform="translate(0 0)">
    <path id="path3082" d="M249.14,1554.132v-13.3h14.08l1.511,1.969,1.561-1.969H317.4v12.381a5.9,5.9,0,0,1-2.882.917h-28.3l-1.7-2.1v2.1h-5.581v-3.578a4.681,4.681,0,0,1-2.411.5h-1.9v3.079h-8.45l-1.508-2.011-1.532,2.011Z" transform="translate(-232.698 -1523.41)" fill="#fff"/>
    <path id="path3080" d="M55.5,1343.025l3.175-7.4h5.491l1.8,4.146v-4.146h6.826l1.073,3,1.04-3h30.641v1.507a6.61,6.61,0,0,1,4.258-1.507l9.942.035,1.771,4.092v-4.127h5.712l1.572,2.351v-2.351h5.765v13.3H128.8l-1.507-2.358v2.358H118.9l-.844-2.1H115.8l-.83,2.1h-5.691a5.626,5.626,0,0,1-3.734-1.476v1.476H96.966l-1.7-2.1v2.1H63.353l-.843-2.1H60.26l-.837,2.1H55.5Z" transform="translate(-55.5 -1335.622)" fill="#fff"/>
    <path id="path3046" d="M59.975,1354.929l-4.282,9.957h2.788l.79-1.994h4.594l.786,1.994H67.5l-4.278-9.957Zm1.584,2.318,1.4,3.484h-2.8Z" transform="translate(-55.676 -1353.29)" fill="#016fd0"/>
    <path id="path3048" d="M198.223,1364.866v-9.957l3.962.015,2.3,6.42,2.249-6.434h3.93v9.957H208.18v-7.337l-2.639,7.337h-2.183l-2.646-7.337v7.337Z" transform="translate(-186.104 -1353.271)" fill="#016fd0"/>
    <path id="path3050" d="M364.861,1364.866v-9.957h8.123v2.227h-5.607v1.7h5.476v2.1h-5.476v1.769h5.607v2.162Z" transform="translate(-338.593 -1353.271)" fill="#016fd0"/>
    <path id="path3052" d="M477.5,1354.929v9.957h2.489v-3.537h1.048l2.985,3.537h3.042l-3.275-3.668a3.032,3.032,0,0,0,2.731-3.058,3.221,3.221,0,0,0-3.48-3.23Zm2.489,2.227h2.845a1.143,1.143,0,0,1,1.179,1.048,1.125,1.125,0,0,1-1.142,1.048h-2.882Z" transform="translate(-441.665 -1353.29)" fill="#016fd0"/>
    <path id="path3054" d="M598.228,1364.866h-2.542v-9.957h2.542Z" transform="translate(-549.819 -1353.271)" fill="#016fd0"/>
    <path id="path3056" d="M644.707,1364.866h-.549c-2.654,0-4.266-2.091-4.266-4.937,0-2.917,1.594-5.02,4.946-5.02h2.751v2.359h-2.852a2.4,2.4,0,0,0-2.323,2.686,2.438,2.438,0,0,0,2.686,2.738h.655Z" transform="translate(-590.271 -1353.271)" fill="#016fd0"/>
    <path id="path3058" d="M714.234,1354.929l-4.283,9.957h2.788l.79-1.994h4.594l.786,1.994h2.85l-4.278-9.957Zm1.584,2.318,1.4,3.484h-2.8Z" transform="translate(-654.382 -1353.29)" fill="#016fd0"/>
    <path id="path3060" d="M852.433,1364.866v-9.957H855.6l4.041,6.256v-6.256h2.489v9.957h-3.062l-4.143-6.42v6.42Z" transform="translate(-784.765 -1353.271)" fill="#016fd0"/>
    <path id="path3062" d="M269.2,1570.078v-9.957h8.123v2.227h-5.607v1.7h5.476v2.1h-5.476v1.769h5.607v2.162Z" transform="translate(-251.053 -1541.059)" fill="#016fd0"/>
    <path id="path3064" d="M737.946,1570.078v-9.957h8.123v2.227h-5.607v1.7h5.45v2.1h-5.45v1.769h5.607v2.162Z" transform="translate(-679.999 -1541.059)" fill="#016fd0"/>
    <path id="path3066" d="M367.559,1570.078l3.955-4.917-4.049-5.04H370.6l2.411,3.116,2.42-3.116h3.013l-4,4.978,3.962,4.979h-3.136l-2.341-3.066-2.285,3.066Z" transform="translate(-340.976 -1541.059)" fill="#016fd0"/>
    <path id="path3068" d="M499.869,1560.141v9.957h2.555v-3.144h2.62c2.217,0,3.9-1.176,3.9-3.464a3.277,3.277,0,0,0-3.574-3.349Zm2.555,2.252h2.759a1.124,1.124,0,0,1,1.228,1.146,1.149,1.149,0,0,1-1.236,1.146h-2.751Z" transform="translate(-462.138 -1541.077)" fill="#016fd0"/>
    <path id="path3072" d="M619.448,1560.122v9.957h2.489v-3.537h1.048l2.985,3.537h3.042l-3.275-3.668a3.032,3.032,0,0,0,2.731-3.058,3.221,3.221,0,0,0-3.48-3.23Zm2.489,2.227h2.846a1.143,1.143,0,0,1,1.179,1.048,1.125,1.125,0,0,1-1.142,1.048h-2.882Z" transform="translate(-571.563 -1541.059)" fill="#016fd0"/>
    <path id="path3074" d="M843.781,1570.078v-2.162h4.982c.737,0,1.056-.4,1.056-.835,0-.419-.318-.842-1.056-.842h-2.251a2.783,2.783,0,0,1-3.047-2.982c0-1.6,1-3.136,3.906-3.136h4.847l-1.048,2.24h-4.192c-.8,0-1.048.42-1.048.822a.868.868,0,0,0,.917.868h2.358c2.181,0,3.128,1.238,3.128,2.858a2.985,2.985,0,0,1-3.247,3.169Z" transform="translate(-776.558 -1541.059)" fill="#016fd0"/>
    <path id="path3076" d="M951.378,1570.078v-2.162h4.982c.737,0,1.056-.4,1.056-.835,0-.419-.318-.842-1.056-.842h-2.251a2.783,2.783,0,0,1-3.047-2.982c0-1.6,1-3.136,3.906-3.136h4.848l-1.048,2.24h-4.192c-.8,0-1.048.42-1.048.822a.868.868,0,0,0,.917.868H956.8c2.181,0,3.128,1.238,3.128,2.858a2.985,2.985,0,0,1-3.247,3.169Z" transform="translate(-875.019 -1541.059)" fill="#016fd0"/>
  </g>
</svg>
