<svg xmlns="http://www.w3.org/2000/svg" width="55.503" height="55.503" viewBox="0 0 55.503 55.503">
  <g id="Group_60" data-name="Group 60" transform="translate(0 0)">
    <path id="path4" d="M0,0H55.5V55.5H0Z" fill="none"/>
    <path id="path6" d="M16.049,12.614a14.4,14.4,0,0,1,15.335-.733,24.081,24.081,0,0,1,27.89,27.89A14.325,14.325,0,0,1,39.736,59.313a24.087,24.087,0,0,1-27.89-27.89,14.331,14.331,0,0,1,4.2-18.808Z" transform="translate(-7.81 -7.846)" fill="#00aff0"/>
    <path id="path8" d="M31.662,28.631a10.657,10.657,0,0,1,9.24-1.208,15.982,15.982,0,0,1,3.04,1.5,21.144,21.144,0,0,1,11.584.611A20.543,20.543,0,0,1,68.16,42.383a21.153,21.153,0,0,1,.5,11.259,12.429,12.429,0,0,1,1.969,5.1,10.66,10.66,0,0,1-13.293,11.63,14.145,14.145,0,0,1-3.7-1.7,21.078,21.078,0,0,1-12.17-.828,20.539,20.539,0,0,1-12.1-12.807,21.144,21.144,0,0,1-.44-11.085,11.665,11.665,0,0,1-2.055-6.433A10.678,10.678,0,0,1,31.662,28.631Z" transform="translate(-21.039 -21.047)" fill="#fff"/>
    <path id="path10" d="M82.02,60.069a16.408,16.408,0,0,1,10.214,1.685,7.179,7.179,0,0,1,3.291,3.222,2.816,2.816,0,0,1-.3,3.011,3.266,3.266,0,0,1-3.256.744c-1.273-.533-1.906-1.867-2.985-2.66a7.408,7.408,0,0,0-4.9-1.39,5.149,5.149,0,0,0-3.5,1.257,2.718,2.718,0,0,0-.334,3.454,5.984,5.984,0,0,0,3.074,1.535c2.1.525,4.217.947,6.322,1.444a10.327,10.327,0,0,1,5.847,3.243,8.305,8.305,0,0,1-1.169,11c-2.48,2.2-5.93,2.8-9.143,2.823-3.43-.05-7.1-.752-9.733-3.1-1.323-1.192-2.435-2.992-2.036-4.833a2.839,2.839,0,0,1,4.373-1.4c1.088.874,1.678,2.2,2.727,3.116a6.66,6.66,0,0,0,4.679,1.568,5.833,5.833,0,0,0,4.51-1.708,3.029,3.029,0,0,0,.674-3.207,3.485,3.485,0,0,0-2.456-1.841c-1.847-.483-3.707-.924-5.555-1.411a17.207,17.207,0,0,1-5.884-2.159,6.332,6.332,0,0,1-2.725-3.924,8.175,8.175,0,0,1,1.676-7.363A10.915,10.915,0,0,1,82.02,60.069Z" transform="translate(-57.432 -46.893)" fill="#00bafa"/>
  </g>
</svg>
